<<<<<<< HEAD
commit 6ddaf7653e358764af8e2249b432457853096b06
Author: Angelica <angelica.informatik@gmail.com>
Date:   Fri Jul 27 20:12:25 2018 -0400

    Ultimos cambios en ofersale

commit 8397a6e414578a3b546ef8d7114ebdc479e13fed
Author: Angelica <angelica.informatik@gmail.com>
Date:   Tue Mar 13 05:54:11 2018 -0400

    Recuperar
=======
commit f9772b6b97e5224fdc1b52aeab9be409335f29e8
Author: Angelica <angelica.informatik@gmail.com>
Date:   Thu Apr 5 03:25:42 2018 -0400

    Para eliminar por login

commit ed3a432137d9714e22db5d26b817267d2a58ee10
Author: Angelica <angelica.informatik@gmail.com>
Date:   Mon Apr 2 05:45:13 2018 -0400

    Solución de carga con imagen

commit 1a4d3ad6cfeb24e8cd06f6ef1c3e589276e5b63d
Author: Angelica <angelica.informatik@gmail.com>
Date:   Wed Mar 28 22:02:13 2018 -0400

    Cambios 28-03

commit 473f2d7578cfde34035032ab2cd68541300c5766
Author: Angelica <angelica.informatik@gmail.com>
Date:   Wed Mar 28 02:28:15 2018 -0400

    Respaldo del 28-03

commit c90b9c31b211bfb71c3e35b195bca2cd941f3a70
Author: Angelica <angelica.informatik@gmail.com>
Date:   Sat Mar 24 16:46:48 2018 -0400

    Subcategorias ordenadas

commit 1d9fbf217f87313007b14b3951626cb45948e4a4
Author: Angelica <angelica.informatik@gmail.com>
Date:   Sat Mar 24 16:24:14 2018 -0400

    Cambios en el footer

commit cf0ebb4ac97cdd3a721224cf01838f69e79068b7
Author: Angelica <angelica.informatik@gmail.com>
Date:   Sat Mar 24 10:28:34 2018 -0400

    Orden de las categorias y subcategorias en products

commit 39e609aac5857deffcf9a7eaba1ac1aa3887cef6
Author: Angelica <angelica.informatik@gmail.com>
Date:   Sat Mar 24 01:59:19 2018 -0400

    Busqueda de Orden de categorias

commit 34f47870dfd3451058d0295eac5b0c42bc335db4
Author: Angelica <angelica.informatik@gmail.com>
Date:   Fri Mar 16 13:32:33 2018 -0400

    configuracion del idioma

commit b09ebafac67f99cf46b5e555f2756d354996536e
Author: Angelica <angelica.informatik@gmail.com>
Date:   Tue Mar 13 06:28:21 2018 -0400

    Traducciones en Restablecer contraseña
>>>>>>> config

commit 292f530b55f6bf6f23237ee1a80385de396b368b
Author: Angelica <angelica.informatik@gmail.com>
Date:   Sun Mar 4 12:19:58 2018 -0400

    arreglos para registrar y cargar productos a nivel de traduccion

commit bdbe55525b25a5d4593b9770c9f81ad9498b3088
Author: Angelica <angelica.informatik@gmail.com>
Date:   Sat Mar 3 00:35:14 2018 -0400

    Arreglo de traduccion y selects

commit 71a097959ea26a093ab6132fee7358d67e2aa685
Author: Angelica <angelica.informatik@gmail.com>
Date:   Thu Mar 1 12:53:46 2018 -0400

    Cambios en traduccion

commit 9f691f10c14b1078bb7e4d0800a38f2ff7729cc5
Author: Angelica <angelica.informatik@gmail.com>
Date:   Tue Feb 27 12:09:11 2018 -0400

    Direccionamiento del login al index por correo

commit 3b11d2e193b9816601a49b38b1b5f5bfd6f614ef
Author: Angelica <angelica.informatik@gmail.com>
Date:   Sun Feb 25 22:11:30 2018 -0400

    Localización por ip en products

commit 64884ce519a67901698a3633af2c640ecd091cfa
Author: Angelica <angelica.informatik@gmail.com>
Date:   Tue Feb 20 22:25:30 2018 -0400

    Intento en /login

commit 10c776444261f7380361e52781b7dd059b279001
Author: Angelica <angelica.informatik@gmail.com>
Date:   Fri Feb 16 22:28:46 2018 -0400

    Cambios en el singup

commit 51381c7838fcc0fca2787173203a9f9273a506b0
Author: Angelica <angelica.informatik@gmail.com>
Date:   Thu Feb 15 23:32:10 2018 -0400

    Cambios en el footer

commit a7caf2b3059894bf71552887b6f92340549c51b8
Author: Angelica <angelica.informatik@gmail.com>
Date:   Sat Feb 3 07:56:45 2018 -0400

    restaurar

commit 3c1dfa005044a020e4d04891915ff2ca358a7485
Author: Angelica <angelica.informatik@gmail.com>
Date:   Fri Feb 2 22:27:12 2018 -0400

    Inicio Responsive
