,
Free & Donations,10
Cars,10
Furniture,10
Household,10
Home Appliances,10
Home Electronics,10
Bedding,10
Electronics & Computers,10
Sports & Outdoors,10
Auto Parts,10
Wheel & Tire,10
Motorcycles,10
Cell Phones,10
Wedding,10
Jewelry & Watches,10
Baby & Kids,10
Women's Clothing & Shoes,10
Men's Clothing & Shoes,10
Video Games,10
Bags & Handbags,10
Collectibles & Art,10
Musical Instruments,10
Health & Beauty,10
Pets & Accessories,10
Tools,10
Tickets,10
"Books, CDs & DVDs",10
Coupons,10
Wanted,10
Other,10
,
Auto Body & Glass,11
Auto Repair & Installation,11
Auto Washing & Detailing,11
Braids,11
Child Care,11
Construction & Renovation,11
Creative Services,11
Electronics Install & Repair,11
Events & Catering,11
Financial Services,11
Food & Dining,11
Gardening & Landscaping,11
Handyman & Locksmith,11
Health & Beauty,11
Home Cleaning,11
Legal Services,11
Lessons & Tutoring,11
Limo & Car Service,11
Moving & Storage,11
Painting & Decorating,11
Pet Care,11
Photography,11
Professional Services,11
Rentals,11
Skilled Trades,11
Travel & Tourism,11
Other,11
,
,
Apartment for rent,12
Apartment for sale,12
House for rent,12
House for sale,12
Office & Commercial,12
Parking & Storage,12
Roommate Temporary,12
Other,12
,
,
Admin & Office,13
Automotive,13
Business Development,13
Construction,13
Creative,13
Customer Service,13
Education,13
Engineering,13
Finance & Accounting,13
Food & Restaurant,13
Healthcare,13
Hotel & Hospitality,13
Installation & Maintenance,13
Labor,13
Legal,13
Marketing,13
Personal Care,13
Real Estate,13
Retail & Wholesale,13
Sales,13
"Salon, Spa & Fitness",13
Security,13
Transportation,13
Intern,13
Part-time,13
Temporary,13
I want a job,13
Other,13
,
,
Estate Sales,14
Garage Sales,14
Automotive Deals,14
Beauty & Spa Deals,14
Health & Wellness Deals,14
Restaurant Deals,14
Retail Deals,14
Service Deals,14
Things To Do,14
,
,
Arts & Crafts,15
Astrology & Readings,15
Celebrity Impersonators,15
Family & Genealogy,15
Gaming,15
Video & Animation,15
"Health, Nutrition & Fitness",15
Online Chat,15
Online Lessons,15
Graphics & Design,15
Pranks & Stunts,15
Relationship Advice,15
Spiritual & Healing,15
Viral Videos,15
Other,15